{

    "create_tb":"create table if not exists {} ( {} ) ",
    "select":"select * from {}",
    "insert":"insert into {} ( {} ) values ( {} )",
    "update":"update {} set {}  where {}",
    "delete":"delete from {} where {} ",
    "count":"select count(*) from {}",
    "datos_per": " id INTEGER PRIMARY KEY AUTOINCREMENT, nom1 TEXT NOT NULL, nom2 TEXT, apell1 TEXT NOT NULL, apell2 TEXT, f_nac TEXT, tel INTEGER, cel INTEGER, email TEXT UNIQUE, descrip TEXT",
    "datos_pro": " id INTEGER PRIMARY KEY AUTOINCREMENT, nom TEXT NOT NULL, descrip TEXT, costo REAL NOT NULL, precio REAL NOT NULL",
    "datos_user": " id INTEGER PRIMARY KEY AUTOINCREMENT, nom TEXT NOT NULL, descrip TEXT, costo REAL NOT NULL, precio REAL NOT NULL",
    "datos_vta": " id INTEGER PRIMARY KEY AUTOINCREMENT, fecha DATE NOT NULL, per_id INTEGER, prod_id INTEGER, cantidad INTEGER NOT NULL, total REAL NOT NULL, FOREIGN KEY (per_id) REFERENCES personas(id), FOREIGN KEY (prod_id) REFERENCES producto(id)",
    "carga_per": "  id, nom1, nom2 , apell1 , apell2,  f_nac , tel, cel , email, descrip"

}